<?xml version="1.0" encoding="UTF-8" standalone="no"?>
<!-- Created with Inkscape (http://www.inkscape.org/) -->

<svg
   xmlns:dc="http://purl.org/dc/elements/1.1/"
   xmlns:cc="http://creativecommons.org/ns#"
   xmlns:rdf="http://www.w3.org/1999/02/22-rdf-syntax-ns#"
   xmlns:svg="http://www.w3.org/2000/svg"
   xmlns="http://www.w3.org/2000/svg"
   xmlns:sodipodi="http://sodipodi.sourceforge.net/DTD/sodipodi-0.dtd"
   xmlns:inkscape="http://www.inkscape.org/namespaces/inkscape"
   width="42mm"
   height="32mm"
   viewBox="0 0 42 31.999999"
   version="1.1"
   id="svg8"
   inkscape:version="0.92.1 r15371"
   sodipodi:docname="anglePathOffset.svg">
  <defs
     id="defs2" />
  <sodipodi:namedview
     id="base"
     pagecolor="#ffffff"
     bordercolor="#666666"
     borderopacity="1.0"
     inkscape:pageopacity="0.0"
     inkscape:pageshadow="2"
     inkscape:zoom="2"
     inkscape:cx="114.29631"
     inkscape:cy="50.444119"
     inkscape:document-units="mm"
     inkscape:current-layer="layer1"
     showgrid="false"
     units="mm"
     borderlayer="true"
     inkscape:showpageshadow="false"
     inkscape:window-width="1920"
     inkscape:window-height="1027"
     inkscape:window-x="-8"
     inkscape:window-y="-8"
     inkscape:window-maximized="1"
     showguides="false" />
  <metadata
     id="metadata5">
    <rdf:RDF>
      <cc:Work
         rdf:about="">
        <dc:format>image/svg+xml</dc:format>
        <dc:type
           rdf:resource="http://purl.org/dc/dcmitype/StillImage" />
        <dc:title></dc:title>
      </cc:Work>
    </rdf:RDF>
  </metadata>
  <g
     inkscape:label="Layer 1"
     inkscape:groupmode="layer"
     id="layer1"
     transform="translate(0,-265.00002)">
    <g
       id="g4568"
       transform="translate(-19.023312,1.522994)">
      <g
         style="stroke:#c9c9c9;stroke-opacity:1"
         transform="translate(-63.500003)"
         id="g4608">
        <path
           sodipodi:nodetypes="ccccccccccccc"
           inkscape:connector-curvature="0"
           id="path4536"
           d="m 123.80504,284.43574 -4.20151,-11.79548 -8.97511,-6.87582 -12.373244,-1.50277 -11.010933,0.68532 -4.03098,6.19094 2.008641,11.54815 4.963592,7.40993 7.939626,3.56444 11.432048,1.03028 7.42434,-0.63855 4.32718,-2.29861 z"
           style="opacity:1;fill:none;stroke:#c9c9c9;stroke-width:0.14;stroke-linecap:butt;stroke-linejoin:miter;stroke-miterlimit:4;stroke-dasharray:0.42, 0.42;stroke-dashoffset:0;stroke-opacity:1" />
        <path
           style="fill:none;stroke:#c9c9c9;stroke-width:0.14;stroke-linecap:butt;stroke-linejoin:miter;stroke-miterlimit:4;stroke-dasharray:0.42, 0.42;stroke-dashoffset:0;stroke-opacity:1"
           d="m 87.244242,264.94699 7.188763,9.83625 6.173925,-3.46114 -2.351754,-7.06043"
           id="path4562"
           inkscape:connector-curvature="0" />
        <path
           style="fill:none;stroke:#c9c9c9;stroke-width:0.14;stroke-linecap:butt;stroke-linejoin:miter;stroke-miterlimit:4;stroke-dasharray:0.42, 0.42;stroke-dashoffset:0;stroke-opacity:1"
           d="m 100.60693,271.3221 4.95785,2.5257 5.06364,-8.08336"
           id="path4564"
           inkscape:connector-curvature="0" />
        <path
           style="fill:none;stroke:#c9c9c9;stroke-width:0.14;stroke-linecap:butt;stroke-linejoin:miter;stroke-miterlimit:4;stroke-dasharray:0.42, 0.42;stroke-dashoffset:0;stroke-opacity:1"
           d="m 105.56478,273.8478 14.03875,-1.20754"
           id="path4566"
           inkscape:connector-curvature="0" />
        <path
           style="fill:none;stroke:#c9c9c9;stroke-width:0.14;stroke-linecap:butt;stroke-linejoin:miter;stroke-miterlimit:4;stroke-dasharray:0.42, 0.42;stroke-dashoffset:0;stroke-opacity:1"
           d="m 83.213262,271.13793 11.219741,3.64531 3.648232,7.34323 6.641645,-1.1693 0.8419,-7.10937"
           id="path4568"
           inkscape:connector-curvature="0" />
        <path
           style="fill:none;stroke:#c9c9c9;stroke-width:0.14;stroke-linecap:butt;stroke-linejoin:miter;stroke-miterlimit:4;stroke-dasharray:0.42, 0.42;stroke-dashoffset:0;stroke-opacity:1"
           d="m 104.72288,280.95717 6.78197,3.92886 3.41436,-8.09159 -9.35443,-2.94664"
           id="path4570"
           inkscape:connector-curvature="0" />
        <path
           style="fill:none;stroke:#c9c9c9;stroke-width:0.14;stroke-linecap:butt;stroke-linejoin:miter;stroke-miterlimit:4;stroke-dasharray:0.42, 0.42;stroke-dashoffset:0;stroke-opacity:1"
           d="m 114.91921,276.79444 4.68432,-4.15418"
           id="path4572"
           inkscape:connector-curvature="0" />
        <path
           style="fill:none;stroke:#c9c9c9;stroke-width:0.14;stroke-linecap:butt;stroke-linejoin:miter;stroke-miterlimit:4;stroke-dasharray:0.42, 0.42;stroke-dashoffset:0;stroke-opacity:1"
           d="m 114.91921,276.79444 8.88583,7.6413 -7.01494,5.12751 -5.28525,-4.67722"
           id="path4574"
           inkscape:connector-curvature="0" />
        <path
           style="fill:none;stroke:#c9c9c9;stroke-width:0.14;stroke-linecap:butt;stroke-linejoin:miter;stroke-miterlimit:4;stroke-dasharray:0.42, 0.42;stroke-dashoffset:0;stroke-opacity:1"
           d="m 121.30869,291.75357 -4.51859,-2.19032 -7.23293,5.12748"
           id="path4576"
           inkscape:connector-curvature="0" />
        <path
           style="fill:none;stroke:#c9c9c9;stroke-width:0.14;stroke-linecap:butt;stroke-linejoin:miter;stroke-miterlimit:4;stroke-dasharray:0.42, 0.42;stroke-dashoffset:0;stroke-opacity:1"
           d="m 111.50485,284.88603 -4.67722,4.58367 2.72954,5.22103"
           id="path4578"
           inkscape:connector-curvature="0" />
        <path
           style="fill:none;stroke:#c9c9c9;stroke-width:0.14;stroke-linecap:butt;stroke-linejoin:miter;stroke-miterlimit:4;stroke-dasharray:0.42, 0.42;stroke-dashoffset:0;stroke-opacity:1"
           d="m 104.72288,280.95717 -1.02899,5.89329 3.13374,2.61924"
           id="path4580"
           inkscape:connector-curvature="0" />
        <path
           style="fill:none;stroke:#c9c9c9;stroke-width:0.14;stroke-linecap:butt;stroke-linejoin:miter;stroke-miterlimit:4;stroke-dasharray:0.42, 0.42;stroke-dashoffset:0;stroke-opacity:1"
           d="m 98.081234,282.12647 2.198286,5.51912 3.41437,-0.79513"
           id="path4582"
           inkscape:connector-curvature="0" />
        <path
           style="fill:none;stroke:#c9c9c9;stroke-width:0.14;stroke-linecap:butt;stroke-linejoin:miter;stroke-miterlimit:4;stroke-dasharray:0.42, 0.42;stroke-dashoffset:0;stroke-opacity:1"
           d="m 106.82763,289.4697 -8.70251,4.19075"
           id="path4584"
           inkscape:connector-curvature="0" />
        <path
           style="fill:none;stroke:#c9c9c9;stroke-width:0.14;stroke-linecap:butt;stroke-linejoin:miter;stroke-miterlimit:4;stroke-dasharray:0.42, 0.42;stroke-dashoffset:0;stroke-opacity:1"
           d="m 100.27952,287.64559 -2.1544,6.01486"
           id="path4586"
           inkscape:connector-curvature="0" />
        <path
           style="fill:none;stroke:#c9c9c9;stroke-width:0.14;stroke-linecap:butt;stroke-linejoin:miter;stroke-miterlimit:4;stroke-dasharray:0.42, 0.42;stroke-dashoffset:0;stroke-opacity:1"
           d="m 85.221902,282.68608 12.859332,-0.55961 -7.895738,7.96954"
           id="path4588"
           inkscape:connector-curvature="0" />
        <path
           style="fill:none;stroke:#c9c9c9;stroke-width:0.14;stroke-linecap:butt;stroke-linejoin:miter;stroke-miterlimit:4;stroke-dasharray:0.42, 0.42;stroke-dashoffset:0;stroke-opacity:1"
           d="m 94.433003,274.78324 -9.211101,7.90284"
           id="path4590"
           inkscape:connector-curvature="0" />
      </g>
      <text
         id="text4537"
         y="285.98318"
         x="47.183308"
         style="font-style:normal;font-variant:normal;font-weight:normal;font-stretch:normal;font-size:7.87650299px;line-height:1.25;font-family:DotumChe;-inkscape-font-specification:DotumChe;letter-spacing:0px;word-spacing:0px;fill:#000000;fill-opacity:1;stroke:none;stroke-width:0.26458332"
         xml:space="preserve"><tspan
           id="tspan4510"
           style="font-style:italic;font-variant:normal;font-weight:normal;font-stretch:normal;font-size:2.88805127px;font-family:'Century Schoolbook';-inkscape-font-specification:'Century Schoolbook Italic';stroke-width:0.26458332"
           y="285.98318"
           x="47.183308"
           sodipodi:role="line">Dγ</tspan></text>
      <g
         style="stroke:#555555;stroke-opacity:1"
         id="g4516">
        <path
           style="opacity:1;fill:none;stroke:#555555;stroke-width:0.16;stroke-linecap:butt;stroke-linejoin:miter;stroke-miterlimit:4;stroke-dasharray:none;stroke-opacity:1"
           d="m 41.331364,291.85802 0.324861,-2.54952 5.859421,-1.02772 -1.458477,6.40991"
           id="path4537"
           inkscape:connector-curvature="0"
           sodipodi:nodetypes="cccc" />
        <path
           style="opacity:1;fill:none;stroke:#555555;stroke-width:0.16;stroke-linecap:butt;stroke-linejoin:miter;stroke-miterlimit:4;stroke-dasharray:none;stroke-opacity:1"
           d="m 41.656225,289.3085 -4.245156,-2.23272"
           id="path4539"
           inkscape:connector-curvature="0"
           sodipodi:nodetypes="cc" />
        <path
           style="opacity:1;fill:none;stroke:#555555;stroke-width:0.16;stroke-linecap:butt;stroke-linejoin:miter;stroke-miterlimit:4;stroke-dasharray:none;stroke-opacity:1"
           d="m 37.638162,281.66219 6.22464,0.31558 3.652843,6.30301 5.723267,-0.94236 4.569777,4.41511"
           id="path4541"
           inkscape:connector-curvature="0"
           sodipodi:nodetypes="ccccc" />
        <path
           style="opacity:1;fill:none;stroke:#555555;stroke-width:0.16;stroke-linecap:butt;stroke-linejoin:miter;stroke-miterlimit:4;stroke-dasharray:none;stroke-opacity:1"
           d="m 43.862802,281.97777 3.544292,-4.78446 6.262864,0.58147 -0.431046,9.56364"
           id="path4543"
           inkscape:connector-curvature="0"
           sodipodi:nodetypes="cccc" />
        <path
           style="opacity:1;fill:none;stroke:#555555;stroke-width:0.16;stroke-linecap:butt;stroke-linejoin:miter;stroke-miterlimit:4;stroke-dasharray:none;stroke-opacity:1"
           d="m 37.638162,281.66219 -0.07835,-8.67095 5.43217,-1.70453 4.415116,5.9066"
           id="path4545"
           inkscape:connector-curvature="0"
           sodipodi:nodetypes="cccc" />
        <path
           style="opacity:1;fill:none;stroke:#555555;stroke-width:0.16;stroke-linecap:butt;stroke-linejoin:miter;stroke-miterlimit:4;stroke-dasharray:none;stroke-opacity:1"
           d="m 28.340893,275.35562 2.894949,-7.16845 6.323966,4.80407"
           id="path4547"
           inkscape:connector-curvature="0"
           sodipodi:nodetypes="ccc" />
        <path
           style="opacity:1;fill:none;stroke:#555555;stroke-width:0.16;stroke-linecap:butt;stroke-linejoin:miter;stroke-miterlimit:4;stroke-dasharray:none;stroke-opacity:1"
           d="m 23.74424,264.94699 11.010933,-0.68532 12.373244,1.50277 -4.136439,5.52227"
           id="path4551"
           inkscape:connector-curvature="0"
           sodipodi:nodetypes="cccc" />
        <path
           style="opacity:1;fill:none;stroke:#555555;stroke-width:0.16;stroke-linecap:butt;stroke-linejoin:miter;stroke-miterlimit:4;stroke-dasharray:none;stroke-opacity:1"
           d="m 47.128417,265.76444 8.975109,6.87582 -2.433568,5.13452 6.635084,6.66096"
           id="path4553"
           inkscape:connector-curvature="0"
           sodipodi:nodetypes="cccc" />
        <path
           style="opacity:1;fill:none;stroke:#555555;stroke-width:0.16;stroke-linecap:butt;stroke-linejoin:miter;stroke-miterlimit:4;stroke-dasharray:none;stroke-opacity:1"
           d="m 56.103526,272.64026 4.201515,11.79548 -2.496352,7.31779"
           id="path4555"
           inkscape:connector-curvature="0"
           sodipodi:nodetypes="ccc" />
        <path
           style="opacity:1;fill:none;stroke:#555555;stroke-width:0.16;stroke-linecap:butt;stroke-linejoin:miter;stroke-miterlimit:4;stroke-dasharray:none;stroke-opacity:1"
           d="m 46.057169,294.69069 -11.43205,-1.03024 -7.939626,-3.56444 1.103314,-4.17774 5.461275,3.36281"
           id="path4557"
           inkscape:connector-curvature="0"
           sodipodi:nodetypes="ccccc" />
        <path
           style="opacity:1;fill:none;stroke:#555555;stroke-width:0.16;stroke-linecap:butt;stroke-linejoin:miter;stroke-miterlimit:4;stroke-dasharray:none;stroke-opacity:1"
           d="m 30.389244,280.71591 -2.600437,5.20236 -6.066906,-3.23219 1.024679,-7.29138"
           id="path4559"
           inkscape:connector-curvature="0"
           sodipodi:nodetypes="cccc" />
        <path
           style="opacity:1;fill:none;stroke:#555555;stroke-width:0.16;stroke-linecap:butt;stroke-linejoin:miter;stroke-miterlimit:4;stroke-dasharray:none;stroke-opacity:1"
           d="m 26.685493,290.09601 -4.963592,-7.40993 -2.008641,-11.54815 4.03098,-6.19094 7.491602,3.24018 3.519332,-3.9255"
           id="path4561"
           inkscape:connector-curvature="0"
           sodipodi:nodetypes="cccccc" />
        <path
           style="opacity:1;fill:none;stroke:#555555;stroke-width:0.16;stroke-linecap:butt;stroke-linejoin:miter;stroke-miterlimit:4;stroke-dasharray:none;stroke-opacity:1"
           d="m 19.71326,271.13793 3.03332,4.25677 5.594313,-0.039 2.048351,5.36028 7.248918,0.94628 -0.227093,5.4136 -4.160989,2.2053 1.375039,4.37937 6.706244,-1.80244 4.725805,2.83267 7.424343,-0.63858 4.327178,-2.29858"
           id="path4535"
           inkscape:connector-curvature="0"
           sodipodi:nodetypes="cccccccccccc" />
      </g>
      <g
         style="stroke-width:1.59172547"
         transform="matrix(0.62824903,0,0,0.62824903,34.130307,97.924441)"
         id="g4616">
        <text
           id="text4591"
           y="305.70752"
           x="21.61755"
           style="font-style:normal;font-variant:normal;font-weight:normal;font-stretch:normal;font-size:10.58333302px;line-height:1.25;font-family:DotumChe;-inkscape-font-specification:DotumChe;letter-spacing:0px;word-spacing:0px;fill:#000000;fill-opacity:1;stroke:none;stroke-width:0.42114401"
           xml:space="preserve"><tspan
             style="font-style:italic;font-variant:normal;font-weight:normal;font-stretch:normal;font-size:3.88055563px;font-family:'Century Schoolbook';-inkscape-font-specification:'Century Schoolbook Italic';stroke-width:0.42114401"
             y="305.70752"
             x="21.61755"
             id="tspan4589"
             sodipodi:role="line">w'</tspan></text>
        <text
           xml:space="preserve"
           style="font-style:normal;font-variant:normal;font-weight:normal;font-stretch:normal;font-size:10.58333302px;line-height:1.25;font-family:DotumChe;-inkscape-font-specification:DotumChe;letter-spacing:0px;word-spacing:0px;fill:#000000;fill-opacity:1;stroke:none;stroke-width:0.42114401"
           x="24.780588"
           y="306.2944"
           id="text4595"><tspan
             sodipodi:role="line"
             id="tspan4593"
             x="24.780588"
             y="306.2944"
             style="font-style:italic;font-variant:normal;font-weight:normal;font-stretch:normal;font-size:1.94027781px;font-family:'Century Schoolbook';-inkscape-font-specification:'Century Schoolbook Italic';stroke-width:0.42114401">i<tspan
   style="font-style:normal;font-variant:normal;font-weight:normal;font-stretch:normal;font-size:1.94027781px;font-family:'Century Schoolbook';-inkscape-font-specification:'Century Schoolbook';stroke-width:0.42114401"
   id="tspan4597" /></tspan></text>
      </g>
      <path
         inkscape:connector-curvature="0"
         id="path4616"
         d="m 46.057169,294.69069 1.458475,-6.40991 -3.652842,-6.30301 -6.224641,-0.31558 -0.07835,-8.67095 -6.323965,-4.80407"
         style="fill:none;stroke:#be1432;stroke-width:0.31999999;stroke-linecap:butt;stroke-linejoin:miter;stroke-miterlimit:4;stroke-dasharray:none;stroke-opacity:1" />
      <path
         inkscape:connector-curvature="0"
         id="path4620"
         d="m 47.515159,288.28222 -4.16746,-5.97543 -6.229203,0.20685 -0.803639,-8.63399 -6.703776,-4.25801"
         style="fill:none;stroke:#e1415f;stroke-width:0.31999999;stroke-linecap:butt;stroke-linejoin:miter;stroke-miterlimit:4;stroke-dasharray:none;stroke-opacity:1"
         sodipodi:nodetypes="ccccc"
         inkscape:transform-center-x="8.9673188"
         inkscape:transform-center-y="-9.33536" />
      <path
         sodipodi:open="true"
         d="m 44.855509,285.75177 a 3.6710937,3.6710937 0 0 1 2.413059,-1.13235"
         sodipodi:end="4.6451672"
         sodipodi:start="3.9021027"
         sodipodi:ry="3.6710937"
         sodipodi:rx="3.6710937"
         sodipodi:cy="288.28223"
         sodipodi:cx="47.51516"
         sodipodi:type="arc"
         id="path4624"
         style="opacity:1;fill:none;fill-opacity:1;stroke:#000000;stroke-width:0.115;stroke-linecap:butt;stroke-linejoin:round;stroke-miterlimit:4;stroke-dasharray:none;stroke-dashoffset:0;stroke-opacity:1" />
    </g>
    <text
       xml:space="preserve"
       style="font-style:normal;font-variant:normal;font-weight:normal;font-stretch:normal;font-size:8.133008px;line-height:1.25;font-family:DotumChe;-inkscape-font-specification:DotumChe;letter-spacing:0px;word-spacing:0px;fill:#000000;fill-opacity:1;stroke:none;stroke-width:0.26458332"
       x="83.1745"
       y="283.77512"
       id="text4537-4"><tspan
         sodipodi:role="line"
         id="tspan4535"
         x="83.1745"
         y="283.77512"
         style="font-style:italic;font-variant:normal;font-weight:normal;font-stretch:normal;font-size:2.98210311px;font-family:'Century Schoolbook';-inkscape-font-specification:'Century Schoolbook Italic';stroke-width:0.26458332">μ</tspan></text>
  </g>
</svg>
